<svg width="16" height="30" viewBox="0 0 16 30" fill="none" xmlns="http://www.w3.org/2000/svg">
<path d="M7.8559 29.195C9.09166 28.5771 11.2984 28.4005 11.6514 28.224C12.0928 28.0475 12.5341 28.1357 12.9755 28.1357C13.4168 28.1357 13.7699 27.9592 14.2112 27.7827C14.6525 27.6061 15.1822 27.4296 15.3587 26.9882C16.2414 25.2229 14.6525 24.0754 12.8872 23.4575C12.0045 23.1927 7.8559 22.8396 7.8559 22.8396V19.7502C7.8559 19.7502 2.91286 19.7502 2.29498 17.5435C2.03018 16.5726 2.91288 14.8955 3.88383 14.8955C2.73634 14.2776 1.6771 13.3067 1.4123 12.0709C1.05923 10.8351 1.85364 9.15804 3.08939 9.06977C1.76537 8.80497 0.0882683 8.09882 0 6.68653C0 5.80385 0.706157 4.92116 1.50057 4.65636C2.29499 4.39155 4.58996 3.33233 4.58996 3.33233C3.97209 3.50887 3.35421 2.80273 3.35421 2.09658C3.35421 1.39043 3.88381 0.860827 4.50169 0.596022C5.11957 0.331217 5.73745 0.24294 6.35533 0.24294C7.67936 0.154672 9.00338 0.0664062 10.3274 0.0664062C11.0336 0.0664062 11.828 0.154683 12.5341 0.419488C13.2403 0.772561 13.7699 1.39044 13.8581 2.18485C13.9464 2.97927 13.3285 3.77367 12.6224 3.77367C14.2995 5.00943 14.5643 7.74575 13.2402 9.33458C14.476 11.0117 14.2112 13.748 12.6224 15.072C13.3285 16.1312 13.9464 17.367 13.7699 18.691C13.6816 19.662 13.0637 20.6329 12.4458 21.3391C11.4749 22.4866 9.17993 22.31 7.8559 22.8396V29.195Z" fill="#FFBA7E"/>
<path d="M14.0337 1.83169C14.0337 2.71438 13.8571 3.42052 12.7979 3.7736C13.5923 4.47974 14.1219 5.45069 14.2102 6.42165C14.2985 7.3926 13.9454 8.62836 13.2392 9.3345C13.9454 10.0406 13.9454 10.5703 14.0337 11.5412C14.0337 12.777 13.6806 14.0127 13.0627 14.6306C12.7979 14.8954 12.6214 15.0719 12.6214 15.0719C12.6214 15.0719 12.6214 15.0719 12.7096 15.1602C13.3275 15.9546 13.9454 17.1021 13.8571 18.2496C13.7688 18.7792 13.4158 19.8384 13.151 20.2798C12.8862 20.8094 11.2973 20.5446 10.5029 20.2798C12.7979 20.4563 12.7979 18.7792 12.7979 17.6317C12.7979 16.4842 12.2683 15.3367 11.3856 14.6306C12.2683 14.101 12.9744 13.3948 13.4158 12.4239C13.7688 11.4529 13.7689 10.3937 13.151 9.51104C12.8862 9.15796 12.5331 8.89317 12.0917 8.8049C13.0627 8.45183 13.6806 7.48087 13.7688 6.42165C13.8571 5.36243 13.2392 4.21494 12.7096 3.7736C12.5331 3.68533 12.0917 3.42053 12.0917 3.42053C12.0917 3.42053 12.7979 3.15572 12.8862 3.15572C13.151 3.06745 13.2392 2.80265 13.2392 2.53784C13.2392 2.27304 13.151 2.00823 13.0627 1.83169C12.7979 1.21382 12.3565 0.595944 11.9152 0.154602C12.3565 0.24287 14.1219 1.12555 14.0337 1.83169Z" fill="#EE8E48"/>
<path d="M6.88389 19.8385C6.44255 19.8385 4.76545 19.4854 4.23584 19.3088C4.32411 19.3088 5.4716 19.4854 5.55986 19.4854C7.06043 19.5736 9.00233 19.6619 10.4146 20.3681C10.4146 20.2798 8.03138 19.9267 6.88389 19.8385Z" fill="#EE8E48"/>
<path d="M4.23584 14.9837C7.50177 13.6596 10.5911 14.2775 11.1208 14.7188C8.11964 14.1892 4.23584 14.9837 4.23584 14.9837Z" fill="#EE8E48"/>
<path d="M11.9145 8.98141C11.4732 8.7166 6.5302 7.83391 3.35254 9.06967C3.35254 9.06967 9.53131 8.62833 11.9145 8.98141Z" fill="#EE8E48"/>
<path d="M5.11865 3.24394C7.14882 3.42047 9.35554 3.3322 11.3857 3.59701C9.53207 2.71432 5.11865 3.24394 5.11865 3.24394Z" fill="#EE8E48"/>
<path d="M8.03091 0.684143C7.94264 0.684143 7.85439 0.860682 7.85439 0.948951C7.85439 1.21376 7.76611 1.47856 7.76611 1.6551C7.76611 1.74337 7.76611 1.83164 7.76611 1.91991C7.76611 2.00818 7.85437 2.00817 7.94263 2.00817C8.11917 2.00817 8.11918 1.83164 8.11918 1.6551C8.11918 1.47856 8.11918 1.3903 8.03091 1.21376C7.94264 1.03722 7.85439 0.948953 7.85439 0.772417" fill="#EE8E48"/>
<path d="M5.20714 4.39154C4.85407 4.83288 4.58924 5.27422 4.50098 5.80383C4.50098 6.06863 4.50098 6.24517 4.50098 6.50997C4.58924 6.86305 4.76579 7.21612 5.11887 7.21612C5.11887 7.03959 5.11886 6.86305 5.03059 6.68651C4.85406 6.06863 4.85406 5.36248 5.03059 4.65633" fill="#EE8E48"/>
<path d="M7.14877 9.95227C6.7957 10.3936 6.53089 10.835 6.61916 11.3646C6.61916 11.6294 6.70744 11.8059 6.79571 11.9824C6.88397 12.2473 6.97224 12.4238 7.14877 12.6886C7.14877 12.7769 7.23705 12.7769 7.23705 12.7769C7.23705 12.3355 7.14878 11.8942 7.23705 11.4528C7.23705 11.188 7.32532 10.9232 7.32532 10.6584C7.32532 10.4819 7.32531 10.2171 7.14877 9.95227Z" fill="#EE8E48"/>
<path d="M6.97162 15.3368C6.70681 15.8664 6.61854 16.396 6.53027 16.9256C6.53027 17.4552 6.53027 17.9848 6.88334 18.4262C6.88334 18.3379 6.88334 18.2496 6.88334 18.1614C6.88334 17.8966 6.97159 17.6318 7.05986 17.367C7.2364 17.0139 7.5012 16.7491 7.5012 16.3077C7.5012 15.9547 7.2364 15.6899 7.05986 15.4251" fill="#EE8E48"/>
<path d="M7.85449 24.4283C8.1193 24.3401 8.29582 24.2518 8.56063 24.2518C9.61985 24.0753 11.8266 23.7222 12.974 23.6339C11.9148 23.1926 9.7964 22.5747 7.85449 23.016" fill="#EE8E48"/>
</svg>
