[
  {
    "name": "Уроки рисования",
    "park": "Радуга",
    "date": "2020-04-06",
    "is_big": false
  },
  {
    "name": "Мастер-класс Открытка для мамы",
    "park": "Радуга",
    "date": "2020-04-06",
    "is_big": true
  },
  {
    "name": "Приключения Сонника на Земле",
    "park": "Парк Хаус",
    "date": "2020-04-13",
    "is_big": false
  },
  {
    "name": "Дискотека с Сонником",
    "park": "Жемчужная Плаза",
    "date": "2020-04-18",
    "is_big": false
  },
  {
    "name": "Танцевальная игра Just Dance",
    "park": "Питерлэнд",
    "date": "2020-04-20",
    "is_big": false
  },
  {
    "name": "Дискотека с директором",
    "park": "Питерлэнд",
    "date": "2020-04-20",
    "is_big": true
  }
]